board_ILI9341.h:39:23:init_board	16	static
board_ILI9341.h:55:23:post_init_board	16	static
board_ILI9341.h:59:23:setpin_reset	16	static
board_ILI9341.h:69:23:set_backlight	16	static
board_ILI9341.h:81:23:acquire_bus	16	static
board_ILI9341.h:85:23:release_bus	16	static
board_ILI9341.h:96:23:ili9341_delay	16	static,ignoring_inline_asm
board_ILI9341.h:102:23:write_index	16	static
board_ILI9341.h:108:23:write_data	16	static
gdisp_lld_ILI9341.c:59:13:set_viewport	16	static
gdisp_lld_ILI9341.c:77:15:gdisp_lld_init	16	static
gdisp_lld_ILI9341.c:239:15:gdisp_lld_write_start	16	static
gdisp_lld_ILI9341.c:244:15:gdisp_lld_write_color	16	static
gdisp_lld_ILI9341.c:247:15:gdisp_lld_write_stop	16	static
gdisp_lld_ILI9341.c:273:15:gdisp_lld_control	16	static
