gos_x_threads.c:21:6:gfxSystemLock	4	static
gos_x_threads.c:25:6:gfxSystemUnlock	4	static
gos_x_threads.c:29:6:gfxMutexInit	16	static
gos_x_threads.c:33:6:gfxMutexEnter	16	static
gos_x_threads.c:44:6:gfxMutexExit	16	static
gos_x_threads.c:48:6:gfxSemInit	16	static
gos_x_threads.c:53:7:gfxSemWait	24	static
gos_x_threads.c:93:7:gfxSemWaitI	16	static
gos_x_threads.c:100:6:gfxSemSignal	16	static
gos_x_threads.c:106:6:gfxSemSignalI	16	static
gos_x_threads.c:115:6:gfxSleepMilliseconds	24	static
gos_x_threads.c:137:6:gfxSleepMicroseconds	24	static
gos_x_threads.c:285:8:_gfxGetStackState	16	static
gos_x_threads.c:290:8:_gfxGetStackStateInFn	8	static
gos_x_threads.c:295:15:_gfxThreadsInit	224	static
gos_x_threads.c:344:14:_gfxAdjustCxt	32	static
gos_x_threads.c:387:14:_gfxXSwitch	24	static
gos_x_threads.c:423:13:Qinit	16	static
gos_x_threads.c:427:13:Qadd	16	static
gos_x_threads.c:436:16:Qpop	24	static
gos_x_threads.c:446:6:_gosThreadsInit	8	static
gos_x_threads.c:460:9:gfxThreadMe	4	static
gos_x_threads.c:465:13:cleanUpDeadThreads	16	static
gos_x_threads.c:472:6:gfxYield	16	static
gos_x_threads.c:488:6:gfxThreadExit	24	static
gos_x_threads.c:511:9:gfxThreadCreate	32	static
gos_x_threads.c:546:15:gfxThreadWait	24	static
